<svg width="69" height="70" viewBox="0 0 69 70" fill="none" xmlns="http://www.w3.org/2000/svg">
<path d="M18.512 31.6998L31.7216 2C34.3492 2 36.8691 3.04303 38.7271 4.89962C40.585 6.75622 41.6288 9.27431 41.6288 11.8999V25.0999H60.3204C61.2778 25.089 62.2261 25.2863 63.0996 25.6781C63.9731 26.0698 64.751 26.6467 65.3792 27.3686C66.0075 28.0906 66.4711 28.9404 66.7381 29.8593C67.005 30.7781 67.0689 31.7439 66.9252 32.6898L62.3679 62.3896C62.1291 63.9634 61.3291 65.3979 60.1153 66.4288C58.9016 67.4597 57.3559 68.0176 55.7631 67.9996H18.512M18.512 31.6998V67.9996M18.512 31.6998H8.6048C6.8531 31.6998 5.17314 32.3952 3.9345 33.6329C2.69586 34.8706 2 36.5494 2 38.2998V61.3996C2 63.15 2.69586 64.8288 3.9345 66.0665C5.17314 67.3042 6.8531 67.9996 8.6048 67.9996H18.512" stroke="black" stroke-width="3" stroke-linecap="round" stroke-linejoin="round"/>
</svg>
