<svg width="29" height="24" viewBox="0 0 29 24" fill="none" xmlns="http://www.w3.org/2000/svg">
<path d="M19.1277 17.6897V3.14367C19.1277 1.95974 18.1679 1 16.984 1H3.14367C1.95976 1 1 1.95974 1 3.14367V17.3469C1 18.5308 1.95976 19.4906 3.14367 19.4906H4.75142" stroke="white" stroke-width="1.71" stroke-linecap="round" stroke-linejoin="round"/>
<path d="M27.9999 11.1448H19.1306" stroke="white" stroke-width="1.71" stroke-linecap="round" stroke-linejoin="round"/>
<path d="M25.1152 19.0906H25.8542C27.0381 19.0906 27.9978 18.1309 27.9978 16.9469V10.5139L25.013 4.40259C24.6535 3.66653 23.906 3.19971 23.0867 3.19971H19.5143" stroke="white" stroke-width="1.71" stroke-linecap="round" stroke-linejoin="round"/>
<path d="M4.85779 19.5551C4.85779 19.9481 4.93519 20.3372 5.08558 20.7003C5.23597 21.0633 5.4564 21.3932 5.73429 21.6711C6.01218 21.949 6.34207 22.1694 6.70515 22.3198C7.06822 22.4702 7.45737 22.5476 7.85035 22.5476C8.24334 22.5476 8.63249 22.4702 8.99556 22.3198C9.35864 22.1694 9.68853 21.949 9.96642 21.6711C10.2443 21.3932 10.4647 21.0633 10.6151 20.7003C10.7655 20.3372 10.8429 19.9481 10.8429 19.5551C10.8429 19.1621 10.7655 18.7729 10.6151 18.4099C10.4647 18.0468 10.2443 17.7169 9.96642 17.439C9.68853 17.1611 9.35864 16.9407 8.99556 16.7903C8.63249 16.6399 8.24334 16.5625 7.85035 16.5625C7.45737 16.5625 7.06822 16.6399 6.70515 16.7903C6.34207 16.9407 6.01218 17.1611 5.73429 17.439C5.4564 17.7169 5.23597 18.0468 5.08558 18.4099C4.93519 18.7729 4.85779 19.1621 4.85779 19.5551Z" stroke="white" stroke-width="1.71" stroke-linecap="round" stroke-linejoin="round"/>
<path d="M18.4423 19.5551C18.4423 20.3487 18.7575 21.1099 19.3188 21.6711C19.88 22.2323 20.6411 22.5476 21.4348 22.5476C22.2285 22.5476 22.9897 22.2323 23.5509 21.6711C24.1121 21.1099 24.4274 20.3487 24.4274 19.5551C24.4274 19.1621 24.35 18.7729 24.1996 18.4099C24.0492 18.0468 23.8288 17.7169 23.5509 17.439C23.273 17.1611 22.9431 16.9407 22.58 16.7903C22.217 16.6399 21.8278 16.5625 21.4348 16.5625C21.0418 16.5625 20.6527 16.6399 20.2896 16.7903C19.9265 16.9407 19.5966 17.1611 19.3188 17.439C19.0409 17.7169 18.8204 18.0468 18.6701 18.4099C18.5197 18.7729 18.4423 19.1621 18.4423 19.5551Z" stroke="white" stroke-width="1.71" stroke-linecap="round" stroke-linejoin="round"/>
<path d="M17.8809 19.4902H11.5839" stroke="white" stroke-width="1.71" stroke-linecap="round" stroke-linejoin="round"/>
</svg>
